sim_output.txt
VCD info: dumpfile wallace_mult_waveform.vcd opened for output.
=================================================================
 Starting self-checking testbench for pipelined_wallace_mult_16x16
 Clock period = 20 ns (50.0 MHz)
 Verified pipeline latency = 4 clock cycles
=================================================================

--- Running directed (corner-case) tests ---
PASS  at time 190000 : A=0 B=0  expected P=0  got P=0
PASS  at time 210000 : A=65535 B=65535  expected P=4294836225  got P=4294836225
PASS  at time 230000 : A=65535 B=0  expected P=0  got P=0
PASS  at time 250000 : A=0 B=65535  expected P=0  got P=0
PASS  at time 270000 : A=65535 B=1  expected P=65535  got P=65535
PASS  at time 290000 : A=1 B=65535  expected P=65535  got P=65535
PASS  at time 310000 : A=32768 B=65535  expected P=2147450880  got P=2147450880
PASS  at time 330000 : A=65535 B=32768  expected P=2147450880  got P=2147450880
PASS  at time 350000 : A=43690 B=21845  expected P=954408050  got P=954408050
PASS  at time 370000 : A=21845 B=43690  expected P=954408050  got P=954408050
PASS  at time 390000 : A=1 B=1  expected P=1  got P=1
PASS  at time 410000 : A=65534 B=65534  expected P=4294705156  got P=4294705156

--- Running 1000 random tests (back-to-back, 1 input per cycle) ---
PASS  at time 550000 : A=13604 B=24193  expected P=329121572  got P=329121572
PASS  at time 570000 : A=54793 B=22115  expected P=1211747195  got P=1211747195
PASS  at time 590000 : A=31501 B=39309  expected P=1238272809  got P=1238272809
PASS  at time 610000 : A=33893 B=21010  expected P=712091930  got P=712091930
PASS  at time 630000 : A=58113 B=52493  expected P=3050525709  got P=3050525709
PASS  at time 650000 : A=61814 B=52541  expected P=3247769374  got P=3247769374
PASS  at time 670000 : A=22509 B=63372  expected P=1426440348  got P=1426440348
PASS  at time 690000 : A=59897 B=9414  expected P=563870358  got P=563870358
PASS  at time 710000 : A=33989 B=53930  expected P=1833026770  got P=1833026770
PASS  at time 730000 : A=63461 B=29303  expected P=1859597683  got P=1859597683
PASS  at time 750000 : A=54802 B=56207  expected P=3080256014  got P=3080256014
PASS  at time 770000 : A=27122 B=38606  expected P=1047071932  got P=1047071932
PASS  at time 790000 : A=31464 B=20165  expected P=634471560  got P=634471560
PASS  at time 810000 : A=18780 B=10429  expected P=195856620  got P=195856620
PASS  at time 830000 : A=22573 B=9829  expected P=221870017  got P=221870017
PASS  at time 850000 : A=25187 B=34570  expected P=870714590  got P=870714590
PASS  at time 870000 : A=8832 B=8480  expected P=74895360  got P=74895360
PASS  at time 890000 : A=17834 B=52381  expected P=934162754  got P=934162754
PASS  at time 910000 : A=16022 B=47123  expected P=755004706  got P=755004706
PASS  at time 930000 : A=14349 B=54867  expected P=787286583  got P=787286583
PASS  at time 950000 : A=56683 B=10965  expected P=621529095  got P=621529095
PASS  at time 970000 : A=18946 B=16046  expected P=304007516  got P=304007516
PASS  at time 990000 : A=59677 B=29391  expected P=1753966707  got P=1753966707
PASS  at time 1010000 : A=18723 B=25866  expected P=484289118  got P=484289118
PASS  at time 1030000 : A=2762 B=19516  expected P=53903192  got P=53903192
PASS  at time 1050000 : A=48626 B=24970  expected P=1214191220  got P=1214191220
PASS  at time 1070000 : A=45889 B=13528  expected P=620786392  got P=620786392
PASS  at time 1090000 : A=62328 B=4745  expected P=295746360  got P=295746360
PASS  at time 1110000 : A=3563 B=26038  expected P=92773394  got P=92773394
PASS  at time 1130000 : A=63942 B=5038  expected P=322139796  got P=322139796
PASS  at time 1150000 : A=700 B=56618  expected P=39632600  got P=39632600
PASS  at time 1170000 : A=39435 B=48753  expected P=1922574555  got P=1922574555
PASS  at time 1190000 : A=16773 B=21839  expected P=366305547  got P=366305547
PASS  at time 1210000 : A=24635 B=13114  expected P=323063390  got P=323063390
PASS  at time 1230000 : A=12926 B=19221  expected P=248450646  got P=248450646
PASS  at time 1250000 : A=39921 B=19417  expected P=775146057  got P=775146057
PASS  at time 1270000 : A=1890 B=64332  expected P=121587480  got P=121587480
PASS  at time 1290000 : A=21919 B=41359  expected P=906547921  got P=906547921
PASS  at time 1310000 : A=43512 B=24759  expected P=1077313608  got P=1077313608
PASS  at time 1330000 : A=22175 B=37980  expected P=842206500  got P=842206500
PASS  at time 1350000 : A=49243 B=14217  expected P=700087731  got P=700087731
PASS  at time 1370000 : A=12873 B=16080  expected P=206997840  got P=206997840
PASS  at time 1390000 : A=49367 B=64593  expected P=3188762631  got P=3188762631
PASS  at time 1410000 : A=12182 B=32524  expected P=396207368  got P=396207368
PASS  at time 1430000 : A=52930 B=60872  expected P=3221954960  got P=3221954960
PASS  at time 1450000 : A=23159 B=60733  expected P=1406515547  got P=1406515547
PASS  at time 1470000 : A=56082 B=126  expected P=7066332  got P=7066332
PASS  at time 1490000 : A=33133 B=59193  expected P=1961241669  got P=1961241669
PASS  at time 1510000 : A=36639 B=63187  expected P=2315108493  got P=2315108493
PASS  at time 1530000 : A=12165 B=34936  expected P=424996440  got P=424996440
PASS  at time 1550000 : A=22875 B=19273  expected P=440869875  got P=440869875
PASS  at time 1570000 : A=44607 B=44842  expected P=2000267094  got P=2000267094
PASS  at time 1590000 : A=25432 B=14470  expected P=368001040  got P=368001040
PASS  at time 1610000 : A=3214 B=62108  expected P=199615112  got P=199615112
PASS  at time 1630000 : A=39418 B=48166  expected P=1898607388  got P=1898607388
PASS  at time 1650000 : A=6003 B=46243  expected P=277596729  got P=277596729
PASS  at time 1670000 : A=43055 B=37555  expected P=1616930525  got P=1616930525
PASS  at time 1690000 : A=22111 B=3396  expected P=75088956  got P=75088956
PASS  at time 1710000 : A=65015 B=14027  expected P=911965405  got P=911965405
PASS  at time 1730000 : A=6886 B=56154  expected P=386676444  got P=386676444
PASS  at time 1750000 : A=49449 B=58093  expected P=2872640757  got P=2872640757
PASS  at time 1770000 : A=27866 B=46693  expected P=1301147138  got P=1301147138
PASS  at time 1790000 : A=58037 B=38111  expected P=2211848107  got P=2211848107
PASS  at time 1810000 : A=6521 B=65348  expected P=426134308  got P=426134308
PASS  at time 1830000 : A=3280 B=2858  expected P=9374240  got P=9374240
PASS  at time 1850000 : A=44459 B=53006  expected P=2356593754  got P=2356593754
PASS  at time 1870000 : A=44508 B=48282  expected P=2148935256  got P=2148935256
PASS  at time 1890000 : A=29437 B=707  expected P=20811959  got P=20811959
PASS  at time 1910000 : A=60758 B=59726  expected P=3628832308  got P=3628832308
PASS  at time 1930000 : A=30311 B=13322  expected P=403803142  got P=403803142
PASS  at time 1950000 : A=47542 B=35384  expected P=1682226128  got P=1682226128
PASS  at time 1970000 : A=34681 B=50360  expected P=1746535160  got P=1746535160
PASS  at time 1990000 : A=49044 B=23955  expected P=1174849020  got P=1174849020
PASS  at time 2010000 : A=11268 B=51801  expected P=583693668  got P=583693668
PASS  at time 2030000 : A=27099 B=56909  expected P=1542176991  got P=1542176991
PASS  at time 2050000 : A=47065 B=9837  expected P=462978405  got P=462978405
PASS  at time 2070000 : A=57974 B=18890  expected P=1095128860  got P=1095128860
PASS  at time 2090000 : A=11702 B=29077  expected P=340259054  got P=340259054
PASS  at time 2110000 : A=6726 B=39684  expected P=266914584  got P=266914584
PASS  at time 2130000 : A=25079 B=1897  expected P=47574863  got P=47574863
PASS  at time 2150000 : A=47796 B=36232  expected P=1731744672  got P=1731744672
PASS  at time 2170000 : A=55592 B=1069  expected P=59427848  got P=59427848
PASS  at time 2190000 : A=12487 B=39982  expected P=499255234  got P=499255234
PASS  at time 2210000 : A=58376 B=17692  expected P=1032788192  got P=1032788192
PASS  at time 2230000 : A=42749 B=1833  expected P=78358917  got P=78358917
PASS  at time 2250000 : A=36892 B=26502  expected P=977711784  got P=977711784
PASS  at time 2270000 : A=2266 B=50749  expected P=114997234  got P=114997234
PASS  at time 2290000 : A=42854 B=50288  expected P=2155041952  got P=2155041952
PASS  at time 2310000 : A=1139 B=39354  expected P=44824206  got P=44824206
PASS  at time 2330000 : A=45918 B=31226  expected P=1433835468  got P=1433835468
PASS  at time 2350000 : A=1493 B=63002  expected P=94061986  got P=94061986
PASS  at time 2370000 : A=185 B=24887  expected P=4604095  got P=4604095
PASS  at time 2390000 : A=14230 B=8640  expected P=122947200  got P=122947200
PASS  at time 2410000 : A=40742 B=6838  expected P=278593796  got P=278593796
PASS  at time 2430000 : A=33661 B=4060  expected P=136663660  got P=136663660
PASS  at time 2450000 : A=22406 B=65400  expected P=1465352400  got P=1465352400
PASS  at time 2470000 : A=39806 B=32987  expected P=1313080522  got P=1313080522
PASS  at time 2490000 : A=46799 B=11129  expected P=520826071  got P=520826071
PASS  at time 2510000 : A=58618 B=61025  expected P=3577163450  got P=3577163450
PASS  at time 2530000 : A=2327 B=30881  expected P=71860087  got P=71860087
PASS  at time 2550000 : A=37254 B=38480  expected P=1433533920  got P=1433533920
PASS  at time 2570000 : A=23029 B=34869  expected P=802998201  got P=802998201
PASS  at time 2590000 : A=35369 B=30145  expected P=1066198505  got P=1066198505
PASS  at time 2610000 : A=29893 B=46232  expected P=1382013176  got P=1382013176
PASS  at time 2630000 : A=31563 B=17011  expected P=536918193  got P=536918193
PASS  at time 2650000 : A=59116 B=5770  expected P=341099320  got P=341099320
PASS  at time 2670000 : A=53582 B=32936  expected P=1764776752  got P=1764776752
PASS  at time 2690000 : A=64937 B=36001  expected P=2337796937  got P=2337796937
PASS  at time 2710000 : A=47374 B=26342  expected P=1247925908  got P=1247925908
PASS  at time 2730000 : A=49311 B=46378  expected P=2286945558  got P=2286945558
PASS  at time 2750000 : A=7466 B=62605  expected P=467408930  got P=467408930
PASS  at time 2770000 : A=65438 B=58936  expected P=3856653968  got P=3856653968
PASS  at time 2790000 : A=43129 B=58312  expected P=2514938248  got P=2514938248
PASS  at time 2810000 : A=17866 B=16659  expected P=297629694  got P=297629694
PASS  at time 2830000 : A=51563 B=44743  expected P=2307083309  got P=2307083309
PASS  at time 2850000 : A=56758 B=40378  expected P=2291774524  got P=2291774524
PASS  at time 2870000 : A=43972 B=38329  expected P=1685402788  got P=1685402788
PASS  at time 2890000 : A=54162 B=39604  expected P=2145031848  got P=2145031848
PASS  at time 2910000 : A=15231 B=36998  expected P=563516538  got P=563516538
PASS  at time 2930000 : A=62970 B=38130  expected P=2401046100  got P=2401046100
PASS  at time 2950000 : A=8498 B=24253  expected P=206101994  got P=206101994
PASS  at time 2970000 : A=52612 B=42212  expected P=2220857744  got P=2220857744
PASS  at time 2990000 : A=53194 B=31145  expected P=1656727130  got P=1656727130
PASS  at time 3010000 : A=43169 B=43406  expected P=1873793614  got P=1873793614
PASS  at time 3030000 : A=27387 B=7691  expected P=210633417  got P=210633417
PASS  at time 3050000 : A=37103 B=15817  expected P=586858151  got P=586858151
PASS  at time 3070000 : A=58678 B=18549  expected P=1088418222  got P=1088418222
PASS  at time 3090000 : A=22159 B=49003  expected P=1085857477  got P=1085857477
PASS  at time 3110000 : A=59272 B=46254  expected P=2741567088  got P=2741567088
PASS  at time 3130000 : A=33179 B=17810  expected P=590917990  got P=590917990
PASS  at time 3150000 : A=57128 B=57389  expected P=3278518792  got P=3278518792
PASS  at time 3170000 : A=24395 B=45250  expected P=1103873750  got P=1103873750
PASS  at time 3190000 : A=63006 B=1293  expected P=81466758  got P=81466758
PASS  at time 3210000 : A=65004 B=40216  expected P=2614200864  got P=2614200864
PASS  at time 3230000 : A=7121 B=7302  expected P=51997542  got P=51997542
PASS  at time 3250000 : A=9281 B=25659  expected P=238141179  got P=238141179
PASS  at time 3270000 : A=63960 B=59731  expected P=3820394760  got P=3820394760
PASS  at time 3290000 : A=25174 B=8795  expected P=221405330  got P=221405330
PASS  at time 3310000 : A=64226 B=57860  expected P=3716116360  got P=3716116360
PASS  at time 3330000 : A=883 B=46296  expected P=40879368  got P=40879368
PASS  at time 3350000 : A=19730 B=17592  expected P=347090160  got P=347090160
PASS  at time 3370000 : A=4665 B=46821  expected P=218419965  got P=218419965
PASS  at time 3390000 : A=56481 B=3883  expected P=219315723  got P=219315723
PASS  at time 3410000 : A=23937 B=34248  expected P=819794376  got P=819794376
PASS  at time 3430000 : A=21799 B=63905  expected P=1393065095  got P=1393065095
PASS  at time 3450000 : A=28191 B=14852  expected P=418692732  got P=418692732
PASS  at time 3470000 : A=9048 B=32918  expected P=297842064  got P=297842064
PASS  at time 3490000 : A=37652 B=46098  expected P=1735681896  got P=1735681896
PASS  at time 3510000 : A=28822 B=58033  expected P=1672627126  got P=1672627126
PASS  at time 3530000 : A=54613 B=36589  expected P=1998235057  got P=1998235057
PASS  at time 3550000 : A=11051 B=7157  expected P=79092007  got P=79092007
PASS  at time 3570000 : A=941 B=8743  expected P=8227163  got P=8227163
PASS  at time 3590000 : A=65412 B=58535  expected P=3828891420  got P=3828891420
PASS  at time 3610000 : A=42727 B=37049  expected P=1582992623  got P=1582992623
PASS  at time 3630000 : A=22089 B=48091  expected P=1062282099  got P=1062282099
PASS  at time 3650000 : A=4041 B=45393  expected P=183433113  got P=183433113
PASS  at time 3670000 : A=24225 B=56618  expected P=1371571050  got P=1371571050
PASS  at time 3690000 : A=17914 B=8261  expected P=147987554  got P=147987554
PASS  at time 3710000 : A=1411 B=17020  expected P=24015220  got P=24015220
PASS  at time 3730000 : A=5234 B=15614  expected P=81723676  got P=81723676
PASS  at time 3750000 : A=62056 B=43631  expected P=2707565336  got P=2707565336
PASS  at time 3770000 : A=3462 B=8688  expected P=30077856  got P=30077856
PASS  at time 3790000 : A=38712 B=37184  expected P=1439467008  got P=1439467008
PASS  at time 3810000 : A=30248 B=43510  expected P=1316090480  got P=1316090480
PASS  at time 3830000 : A=6853 B=12736  expected P=87279808  got P=87279808
PASS  at time 3850000 : A=24436 B=28985  expected P=708277460  got P=708277460
PASS  at time 3870000 : A=27312 B=34620  expected P=945541440  got P=945541440
PASS  at time 3890000 : A=37674 B=54114  expected P=2038690836  got P=2038690836
PASS  at time 3910000 : A=13589 B=20193  expected P=274402677  got P=274402677
PASS  at time 3930000 : A=40215 B=60995  expected P=2452913925  got P=2452913925
PASS  at time 3950000 : A=58313 B=1158  expected P=67526454  got P=67526454
PASS  at time 3970000 : A=52005 B=40385  expected P=2100221925  got P=2100221925
PASS  at time 3990000 : A=41613 B=57946  expected P=2411306898  got P=2411306898
PASS  at time 4010000 : A=9991 B=31532  expected P=315036212  got P=315036212
PASS  at time 4030000 : A=23820 B=58993  expected P=1405213260  got P=1405213260
PASS  at time 4050000 : A=31803 B=58806  expected P=1870207218  got P=1870207218
PASS  at time 4070000 : A=49911 B=52894  expected P=2639992434  got P=2639992434
PASS  at time 4090000 : A=22620 B=63317  expected P=1432230540  got P=1432230540
PASS  at time 4110000 : A=14880 B=4768  expected P=70947840  got P=70947840
PASS  at time 4130000 : A=2418 B=36020  expected P=87096360  got P=87096360
PASS  at time 4150000 : A=62941 B=61453  expected P=3867913273  got P=3867913273
PASS  at time 4170000 : A=39243 B=17017  expected P=667798131  got P=667798131
PASS  at time 4190000 : A=55966 B=25853  expected P=1446888998  got P=1446888998
PASS  at time 4210000 : A=53883 B=29583  expected P=1594020789  got P=1594020789
PASS  at time 4230000 : A=39427 B=10723  expected P=422775721  got P=422775721
PASS  at time 4250000 : A=17181 B=15793  expected P=271339533  got P=271339533
PASS  at time 4270000 : A=40772 B=48277  expected P=1968349844  got P=1968349844
PASS  at time 4290000 : A=13536 B=30957  expected P=419033952  got P=419033952
PASS  at time 4310000 : A=5458 B=23544  expected P=128503152  got P=128503152
PASS  at time 4330000 : A=46989 B=50258  expected P=2361573162  got P=2361573162
PASS  at time 4350000 : A=59268 B=64838  expected P=3842818584  got P=3842818584
PASS  at time 4370000 : A=37516 B=32144  expected P=1205914304  got P=1205914304
PASS  at time 4390000 : A=49431 B=24938  expected P=1232710278  got P=1232710278
PASS  at time 4410000 : A=22404 B=48298  expected P=1082068392  got P=1082068392
PASS  at time 4430000 : A=3964 B=608  expected P=2410112  got P=2410112
PASS  at time 4450000 : A=19898 B=24715  expected P=491779070  got P=491779070
PASS  at time 4470000 : A=65190 B=7717  expected P=503071230  got P=503071230
PASS  at time 4490000 : A=33586 B=1186  expected P=39832996  got P=39832996
PASS  at time 4510000 : A=31817 B=45076  expected P=1434183092  got P=1434183092
PASS  at time 4530000 : A=49213 B=843  expected P=41486559  got P=41486559
PASS  at time 4550000 : A=12380 B=30023  expected P=371684740  got P=371684740
PASS  at time 4570000 : A=38790 B=31289  expected P=1213700310  got P=1213700310
PASS  at time 4590000 : A=35508 B=58832  expected P=2089006656  got P=2089006656
PASS  at time 4610000 : A=20524 B=17804  expected P=365409296  got P=365409296
PASS  at time 4630000 : A=46855 B=16490  expected P=772638950  got P=772638950
PASS  at time 4650000 : A=63761 B=65512  expected P=4177110632  got P=4177110632
PASS  at time 4670000 : A=40523 B=33139  expected P=1342891697  got P=1342891697
PASS  at time 4690000 : A=23532 B=1315  expected P=30944580  got P=30944580
PASS  at time 4710000 : A=61348 B=26057  expected P=1598544836  got P=1598544836
PASS  at time 4730000 : A=1081 B=29407  expected P=31788967  got P=31788967
PASS  at time 4750000 : A=5332 B=25959  expected P=138413388  got P=138413388
PASS  at time 4770000 : A=16797 B=9648  expected P=162057456  got P=162057456
PASS  at time 4790000 : A=14722 B=48969  expected P=720921618  got P=720921618
PASS  at time 4810000 : A=6873 B=46880  expected P=322206240  got P=322206240
PASS  at time 4830000 : A=19484 B=28563  expected P=556521492  got P=556521492
PASS  at time 4850000 : A=25059 B=33322  expected P=835015998  got P=835015998
PASS  at time 4870000 : A=63688 B=11869  expected P=755912872  got P=755912872
PASS  at time 4890000 : A=40250 B=43396  expected P=1746689000  got P=1746689000
PASS  at time 4910000 : A=43051 B=32569  expected P=1402128019  got P=1402128019
PASS  at time 4930000 : A=7186 B=82  expected P=589252  got P=589252
PASS  at time 4950000 : A=35161 B=38608  expected P=1357495888  got P=1357495888
PASS  at time 4970000 : A=60014 B=10647  expected P=638969058  got P=638969058
PASS  at time 4990000 : A=34779 B=30630  expected P=1065280770  got P=1065280770
PASS  at time 5010000 : A=54203 B=31744  expected P=1720620032  got P=1720620032
PASS  at time 5030000 : A=19471 B=54889  expected P=1068743719  got P=1068743719
PASS  at time 5050000 : A=25100 B=6489  expected P=162873900  got P=162873900
PASS  at time 5070000 : A=18885 B=13775  expected P=260140875  got P=260140875
PASS  at time 5090000 : A=58768 B=55377  expected P=3254395536  got P=3254395536
PASS  at time 5110000 : A=42089 B=52599  expected P=2213839311  got P=2213839311
PASS  at time 5130000 : A=25930 B=22744  expected P=589751920  got P=589751920
PASS  at time 5150000 : A=19867 B=39620  expected P=787130540  got P=787130540
PASS  at time 5170000 : A=45496 B=62135  expected P=2826893960  got P=2826893960
PASS  at time 5190000 : A=61062 B=23088  expected P=1409799456  got P=1409799456
PASS  at time 5210000 : A=21367 B=51125  expected P=1092387875  got P=1092387875
PASS  at time 5230000 : A=62932 B=34567  expected P=2175370444  got P=2175370444
PASS  at time 5250000 : A=38774 B=44521  expected P=1726257254  got P=1726257254
PASS  at time 5270000 : A=35723 B=24321  expected P=868819083  got P=868819083
PASS  at time 5290000 : A=35803 B=17024  expected P=609510272  got P=609510272
PASS  at time 5310000 : A=40898 B=56005  expected P=2290492490  got P=2290492490
PASS  at time 5330000 : A=64048 B=58543  expected P=3749562064  got P=3749562064
PASS  at time 5350000 : A=55910 B=47535  expected P=2657681850  got P=2657681850
PASS  at time 5370000 : A=28393 B=45048  expected P=1279047864  got P=1279047864
PASS  at time 5390000 : A=44038 B=30447  expected P=1340824986  got P=1340824986
PASS  at time 5410000 : A=14305 B=31893  expected P=456229365  got P=456229365
PASS  at time 5430000 : A=16110 B=19808  expected P=319106880  got P=319106880
PASS  at time 5450000 : A=24293 B=59944  expected P=1456219592  got P=1456219592
PASS  at time 5470000 : A=32100 B=14121  expected P=453284100  got P=453284100
PASS  at time 5490000 : A=44769 B=21111  expected P=945118359  got P=945118359
PASS  at time 5510000 : A=5486 B=62849  expected P=344789614  got P=344789614
PASS  at time 5530000 : A=47573 B=54632  expected P=2599008136  got P=2599008136
PASS  at time 5550000 : A=29168 B=170  expected P=4958560  got P=4958560
PASS  at time 5570000 : A=49935 B=18673  expected P=932436255  got P=932436255
PASS  at time 5590000 : A=48253 B=38286  expected P=1847414358  got P=1847414358
PASS  at time 5610000 : A=56546 B=19772  expected P=1118027512  got P=1118027512
PASS  at time 5630000 : A=59049 B=45551  expected P=2689740999  got P=2689740999
PASS  at time 5650000 : A=53339 B=15535  expected P=828621365  got P=828621365
PASS  at time 5670000 : A=39754 B=3513  expected P=139655802  got P=139655802
PASS  at time 5690000 : A=11539 B=13587  expected P=156780393  got P=156780393
PASS  at time 5710000 : A=16741 B=10065  expected P=168498165  got P=168498165
PASS  at time 5730000 : A=15031 B=4249  expected P=63866719  got P=63866719
PASS  at time 5750000 : A=2106 B=14961  expected P=31507866  got P=31507866
PASS  at time 5770000 : A=1890 B=27364  expected P=51717960  got P=51717960
PASS  at time 5790000 : A=56618 B=17533  expected P=992683394  got P=992683394
PASS  at time 5810000 : A=24409 B=41957  expected P=1024128413  got P=1024128413
PASS  at time 5830000 : A=27629 B=201  expected P=5553429  got P=5553429
PASS  at time 5850000 : A=52289 B=53679  expected P=2806821231  got P=2806821231
PASS  at time 5870000 : A=7387 B=59597  expected P=440243039  got P=440243039
PASS  at time 5890000 : A=40816 B=54278  expected P=2215410848  got P=2215410848
PASS  at time 5910000 : A=8354 B=15805  expected P=132034970  got P=132034970
PASS  at time 5930000 : A=56938 B=18396  expected P=1047431448  got P=1047431448
PASS  at time 5950000 : A=24144 B=62587  expected P=1511100528  got P=1511100528
PASS  at time 5970000 : A=22565 B=33912  expected P=765224280  got P=765224280
PASS  at time 5990000 : A=35318 B=52828  expected P=1865779304  got P=1865779304
PASS  at time 6010000 : A=39715 B=43897  expected P=1743369355  got P=1743369355
PASS  at time 6030000 : A=1480 B=18107  expected P=26798360  got P=26798360
PASS  at time 6050000 : A=60942 B=38003  expected P=2315978826  got P=2315978826
PASS  at time 6070000 : A=780 B=39118  expected P=30512040  got P=30512040
PASS  at time 6090000 : A=25044 B=56409  expected P=1412706996  got P=1412706996
PASS  at time 6110000 : A=28601 B=49331  expected P=1410915931  got P=1410915931
PASS  at time 6130000 : A=49140 B=57973  expected P=2848793220  got P=2848793220
PASS  at time 6150000 : A=61708 B=31289  expected P=1930781612  got P=1930781612
PASS  at time 6170000 : A=37634 B=48661  expected P=1831308074  got P=1831308074
PASS  at time 6190000 : A=63749 B=17230  expected P=1098395270  got P=1098395270
PASS  at time 6210000 : A=10498 B=20920  expected P=219618160  got P=219618160
PASS  at time 6230000 : A=45576 B=21389  expected P=974825064  got P=974825064
PASS  at time 6250000 : A=36527 B=12776  expected P=466668952  got P=466668952
PASS  at time 6270000 : A=2448 B=44021  expected P=107763408  got P=107763408
PASS  at time 6290000 : A=36940 B=48507  expected P=1791848580  got P=1791848580
PASS  at time 6310000 : A=42560 B=805  expected P=34260800  got P=34260800
PASS  at time 6330000 : A=46605 B=4208  expected P=196113840  got P=196113840
PASS  at time 6350000 : A=63789 B=55337  expected P=3529891893  got P=3529891893
PASS  at time 6370000 : A=20924 B=2096  expected P=43856704  got P=43856704
PASS  at time 6390000 : A=11712 B=26960  expected P=315755520  got P=315755520
PASS  at time 6410000 : A=27297 B=16205  expected P=442347885  got P=442347885
PASS  at time 6430000 : A=12021 B=45045  expected P=541485945  got P=541485945
PASS  at time 6450000 : A=52317 B=4756  expected P=248819652  got P=248819652
PASS  at time 6470000 : A=42602 B=26044  expected P=1109526488  got P=1109526488
PASS  at time 6490000 : A=2232 B=40094  expected P=89489808  got P=89489808
PASS  at time 6510000 : A=1786 B=2886  expected P=5154396  got P=5154396
PASS  at time 6530000 : A=25607 B=48275  expected P=1236177925  got P=1236177925
PASS  at time 6550000 : A=29781 B=56247  expected P=1675091907  got P=1675091907
PASS  at time 6570000 : A=61765 B=2659  expected P=164233135  got P=164233135
PASS  at time 6590000 : A=57433 B=52774  expected P=3030969142  got P=3030969142
PASS  at time 6610000 : A=30312 B=58398  expected P=1770160176  got P=1770160176
PASS  at time 6630000 : A=62608 B=42330  expected P=2650196640  got P=2650196640
PASS  at time 6650000 : A=34076 B=26553  expected P=904820028  got P=904820028
PASS  at time 6670000 : A=8107 B=55760  expected P=452046320  got P=452046320
PASS  at time 6690000 : A=25967 B=28120  expected P=730192040  got P=730192040
PASS  at time 6710000 : A=34885 B=42893  expected P=1496322305  got P=1496322305
PASS  at time 6730000 : A=9099 B=37372  expected P=340047828  got P=340047828
PASS  at time 6750000 : A=8156 B=2724  expected P=22216944  got P=22216944
PASS  at time 6770000 : A=36121 B=13221  expected P=477555741  got P=477555741
PASS  at time 6790000 : A=36414 B=49395  expected P=1798669530  got P=1798669530
PASS  at time 6810000 : A=11352 B=27588  expected P=313178976  got P=313178976
PASS  at time 6830000 : A=17244 B=17670  expected P=304701480  got P=304701480
PASS  at time 6850000 : A=20634 B=6424  expected P=132552816  got P=132552816
PASS  at time 6870000 : A=26309 B=53674  expected P=1412109266  got P=1412109266
PASS  at time 6890000 : A=794 B=54723  expected P=43450062  got P=43450062
PASS  at time 6910000 : A=59826 B=25356  expected P=1516948056  got P=1516948056
PASS  at time 6930000 : A=3817 B=64963  expected P=247963771  got P=247963771
PASS  at time 6950000 : A=29675 B=47608  expected P=1412767400  got P=1412767400
PASS  at time 6970000 : A=1010 B=44425  expected P=44869250  got P=44869250
PASS  at time 6990000 : A=29551 B=19227  expected P=568177077  got P=568177077
PASS  at time 7010000 : A=10413 B=49512  expected P=515568456  got P=515568456
PASS  at time 7030000 : A=4645 B=22479  expected P=104414955  got P=104414955
PASS  at time 7050000 : A=36267 B=53787  expected P=1950693129  got P=1950693129
PASS  at time 7070000 : A=16000 B=55645  expected P=890320000  got P=890320000
PASS  at time 7090000 : A=64898 B=16900  expected P=1096776200  got P=1096776200
PASS  at time 7110000 : A=42327 B=35638  expected P=1508449626  got P=1508449626
PASS  at time 7130000 : A=818 B=10361  expected P=8475298  got P=8475298
PASS  at time 7150000 : A=44772 B=60438  expected P=2705930136  got P=2705930136
PASS  at time 7170000 : A=60586 B=26048  expected P=1578144128  got P=1578144128
PASS  at time 7190000 : A=34862 B=14220  expected P=495737640  got P=495737640
PASS  at time 7210000 : A=49777 B=36859  expected P=1834730443  got P=1834730443
PASS  at time 7230000 : A=8636 B=26844  expected P=231824784  got P=231824784
PASS  at time 7250000 : A=22295 B=1217  expected P=27133015  got P=27133015
PASS  at time 7270000 : A=8683 B=15285  expected P=132719655  got P=132719655
PASS  at time 7290000 : A=11913 B=57999  expected P=690942087  got P=690942087
PASS  at time 7310000 : A=63167 B=10928  expected P=690288976  got P=690288976
PASS  at time 7330000 : A=39635 B=726  expected P=28775010  got P=28775010
PASS  at time 7350000 : A=52354 B=29978  expected P=1569468212  got P=1569468212
PASS  at time 7370000 : A=42865 B=1239  expected P=53109735  got P=53109735
PASS  at time 7390000 : A=36366 B=5361  expected P=194958126  got P=194958126
PASS  at time 7410000 : A=7629 B=17157  expected P=130890753  got P=130890753
PASS  at time 7430000 : A=60188 B=51096  expected P=3075366048  got P=3075366048
PASS  at time 7450000 : A=35052 B=54826  expected P=1921760952  got P=1921760952
PASS  at time 7470000 : A=19045 B=1335  expected P=25425075  got P=25425075
PASS  at time 7490000 : A=13827 B=40702  expected P=562786554  got P=562786554
PASS  at time 7510000 : A=56573 B=3646  expected P=206265158  got P=206265158
PASS  at time 7530000 : A=13544 B=14452  expected P=195737888  got P=195737888
PASS  at time 7550000 : A=35248 B=56326  expected P=1985378848  got P=1985378848
PASS  at time 7570000 : A=19730 B=64616  expected P=1274873680  got P=1274873680
PASS  at time 7590000 : A=197 B=12030  expected P=2369910  got P=2369910
PASS  at time 7610000 : A=3382 B=2547  expected P=8613954  got P=8613954
PASS  at time 7630000 : A=44027 B=31851  expected P=1402303977  got P=1402303977
PASS  at time 7650000 : A=48919 B=13839  expected P=676990041  got P=676990041
PASS  at time 7670000 : A=46612 B=1322  expected P=61621064  got P=61621064
PASS  at time 7690000 : A=28326 B=9940  expected P=281560440  got P=281560440
PASS  at time 7710000 : A=4299 B=49771  expected P=213965529  got P=213965529
PASS  at time 7730000 : A=60164 B=13044  expected P=784779216  got P=784779216
PASS  at time 7750000 : A=24973 B=28897  expected P=721644781  got P=721644781
PASS  at time 7770000 : A=48517 B=29881  expected P=1449736477  got P=1449736477
PASS  at time 7790000 : A=5833 B=36448  expected P=212601184  got P=212601184
PASS  at time 7810000 : A=12870 B=52028  expected P=669600360  got P=669600360
PASS  at time 7830000 : A=24375 B=21848  expected P=532545000  got P=532545000
PASS  at time 7850000 : A=22387 B=53774  expected P=1203838538  got P=1203838538
PASS  at time 7870000 : A=9180 B=49968  expected P=458706240  got P=458706240
PASS  at time 7890000 : A=62928 B=58624  expected P=3689091072  got P=3689091072
PASS  at time 7910000 : A=3907 B=37368  expected P=145996776  got P=145996776
PASS  at time 7930000 : A=39585 B=8019  expected P=317432115  got P=317432115
PASS  at time 7950000 : A=36760 B=15711  expected P=577536360  got P=577536360
PASS  at time 7970000 : A=37511 B=23290  expected P=873631190  got P=873631190
PASS  at time 7990000 : A=53549 B=624  expected P=33414576  got P=33414576
PASS  at time 8010000 : A=59499 B=14385  expected P=855893115  got P=855893115
PASS  at time 8030000 : A=49170 B=57100  expected P=2807607000  got P=2807607000
PASS  at time 8050000 : A=27405 B=4885  expected P=133873425  got P=133873425
PASS  at time 8070000 : A=1856 B=36244  expected P=67268864  got P=67268864
PASS  at time 8090000 : A=41812 B=640  expected P=26759680  got P=26759680
PASS  at time 8110000 : A=5395 B=34499  expected P=186122105  got P=186122105
PASS  at time 8130000 : A=57069 B=59100  expected P=3372777900  got P=3372777900
PASS  at time 8150000 : A=4216 B=3367  expected P=14195272  got P=14195272
PASS  at time 8170000 : A=9823 B=23331  expected P=229180413  got P=229180413
